Homework #2: Resampling
…
Report the optimal \(k\), the corresponding edf, and MSE based on the test set.

Solution

set.seed(223)
n=50000
x = x_vals(n)
y = y_vals(x)
data_test = tibble(x=x, y=y)

k = seq(3,40,1)
RESULTS2 = map_df(k, knn_eval, data_train = data_train, data_test = data_test)
RESULTS2

# A tibble: 38 × 4
      k   edf mse.train mse.test
  <dbl> <dbl>     <dbl>    <dbl>
1     3  33.3      3.91     7.91
2     4  25        4.54     7.57
3     5  20        4.51     7.42
4     6  16.7      4.70     7.30
5     7  14.3      4.71     7.26
6     8  12.5      4.80     7.14
# ℹ 32 more rows
…
